{
   "__inputs": [ ],
   "__requires": [ ],
   "annotations": {
      "list": [ ]
   },
   "editable": true,
   "gnetId": null,
   "graphTooltip": 0,
   "hideControls": false,
   "id": null,
   "links": [ ],
   "panels": [
      {
         "collapse": false,
         "collapsed": false,
         "gridPos": {
            "h": 2,
            "w": 24,
            "x": 0,
            "y": 0
         },
         "id": 2,
         "panels": [ ],
         "repeat": "service",
         "repeatIteration": null,
         "repeatRowId": null,
         "showTitle": true,
         "title": "$service",
         "titleSize": "h6",
         "type": "row"
      },
      {
         "aliasColors": { },
         "bars": false,
         "dashLength": 10,
         "dashes": false,
         "datasource": "Prometheus",
         "fill": 2,
         "fillGradient": 0,
         "gridPos": {
            "h": 6,
            "w": 6,
            "x": 0,
            "y": 2
         },
         "id": 3,
         "legend": {
            "alignAsTable": false,
            "avg": false,
            "current": false,
            "max": false,
            "min": false,
            "rightSide": false,
            "show": true,
            "sideWidth": null,
            "total": false,
            "values": false
         },
         "lines": true,
         "linewidth": 1,
         "links": [ ],
         "nullPointMode": "null",
         "percentage": false,
         "pointradius": 5,
         "points": false,
         "renderer": "flot",
         "repeat": null,
         "seriesOverrides": [ ],
         "spaceLength": 10,
         "stack": false,
         "steppedLine": false,
         "targets": [
            {
               "expr": "process_cpu_usage{service=\"$service\"}",
               "format": "time_series",
               "intervalFactor": 1,
               "legendFormat": "process_cpu_usage",
               "refId": "A"
            },
            {
               "expr": "system_cpu_usage{service=\"$service\"}",
               "format": "time_series",
               "intervalFactor": 1,
               "legendFormat": "system_cpu_usage",
               "refId": "B"
            }
         ],
         "thresholds": [ ],
         "timeFrom": null,
         "timeShift": null,
         "title": "CPU Usage",
         "tooltip": {
            "shared": true,
            "sort": 0,
            "value_type": "individual"
         },
         "type": "graph",
         "xaxis": {
            "buckets": null,
            "mode": "time",
            "name": null,
            "show": true,
            "values": [ ]
         },
         "yaxes": [
            {
               "format": "percentunit",
               "label": null,
               "logBase": 1,
               "max": null,
               "min": null,
               "show": true
            },
            {
               "format": "short",
               "label": null,
               "logBase": 1,
               "max": null,
               "min": null,
               "show": true
            }
         ]
      },
      {
         "aliasColors": { },
         "bars": false,
         "dashLength": 10,
         "dashes": false,
         "datasource": "Prometheus",
         "fill": 1,
         "fillGradient": 0,
         "gridPos": {
            "h": 6,
            "w": 6,
            "x": 6,
            "y": 2
         },
         "id": 4,
         "legend": {
            "alignAsTable": false,
            "avg": false,
            "current": false,
            "max": false,
            "min": false,
            "rightSide": false,
            "show": true,
            "sideWidth": null,
            "total": false,
            "values": false
         },
         "lines": true,
         "linewidth": 1,
         "links": [ ],
         "nullPointMode": "null",
         "percentage": false,
         "pointradius": 5,
         "points": false,
         "renderer": "flot",
         "repeat": null,
         "seriesOverrides": [ ],
         "spaceLength": 10,
         "stack": false,
         "steppedLine": false,
         "targets": [
            {
               "expr": "sum(jvm_memory_max{service=\"$service\", area=\"heap\"})",
               "format": "time_series",
               "intervalFactor": 1,
               "legendFormat": "max",
               "refId": "A"
            },
            {
               "expr": "sum(jvm_memory_committed{service=\"$service\", area=\"heap\"})",
               "format": "time_series",
               "intervalFactor": 1,
               "legendFormat": "committed",
               "refId": "B"
            },
            {
               "expr": "sum(jvm_memory_used{service=\"$service\", area=\"heap\"})",
               "format": "time_series",
               "intervalFactor": 1,
               "legendFormat": "used",
               "refId": "C"
            }
         ],
         "thresholds": [ ],
         "timeFrom": null,
         "timeShift": null,
         "title": "Memory - Heap",
         "tooltip": {
            "shared": true,
            "sort": 0,
            "value_type": "individual"
         },
         "type": "graph",
         "xaxis": {
            "buckets": null,
            "mode": "time",
            "name": null,
            "show": true,
            "values": [ ]
         },
         "yaxes": [
            {
               "format": "decbytes",
               "label": null,
               "logBase": 1,
               "max": null,
               "min": null,
               "show": true
            },
            {
               "format": "short",
               "label": null,
               "logBase": 1,
               "max": null,
               "min": null,
               "show": true
            }
         ]
      },
      {
         "aliasColors": { },
         "bars": false,
         "dashLength": 10,
         "dashes": false,
         "datasource": "Prometheus",
         "fill": 2,
         "fillGradient": 0,
         "gridPos": {
            "h": 6,
            "w": 6,
            "x": 12,
            "y": 2
         },
         "id": 5,
         "legend": {
            "alignAsTable": false,
            "avg": false,
            "current": false,
            "max": false,
            "min": false,
            "rightSide": false,
            "show": true,
            "sideWidth": null,
            "total": false,
            "values": false
         },
         "lines": true,
         "linewidth": 1,
         "links": [ ],
         "nullPointMode": "null",
         "percentage": false,
         "pointradius": 5,
         "points": false,
         "renderer": "flot",
         "repeat": null,
         "seriesOverrides": [ ],
         "spaceLength": 10,
         "stack": false,
         "steppedLine": false,
         "targets": [
            {
               "expr": "sum(jvm_memory_max{service=\"$service\", area=\"nonheap\"})",
               "format": "time_series",
               "intervalFactor": 1,
               "legendFormat": "max",
               "refId": "A"
            },
            {
               "expr": "sum(jvm_memory_committed{service=\"$service\", area=\"nonheap\"})",
               "format": "time_series",
               "intervalFactor": 1,
               "legendFormat": "committed",
               "refId": "B"
            },
            {
               "expr": "sum(jvm_memory_used{service=\"$service\", area=\"nonheap\"})",
               "format": "time_series",
               "intervalFactor": 1,
               "legendFormat": "used",
               "refId": "C"
            }
         ],
         "thresholds": [ ],
         "timeFrom": null,
         "timeShift": null,
         "title": "Memory - Non-Heap",
         "tooltip": {
            "shared": true,
            "sort": 0,
            "value_type": "individual"
         },
         "type": "graph",
         "xaxis": {
            "buckets": null,
            "mode": "time",
            "name": null,
            "show": true,
            "values": [ ]
         },
         "yaxes": [
            {
               "format": "decbytes",
               "label": null,
               "logBase": 1,
               "max": null,
               "min": null,
               "show": true
            },
            {
               "format": "short",
               "label": null,
               "logBase": 1,
               "max": null,
               "min": null,
               "show": true
            }
         ]
      }
   ],
   "refresh": "",
   "rows": [ ],
   "schemaVersion": 14,
   "style": "dark",
   "tags": [ ],
   "templating": {
      "list": [
         {
            "allValue": null,
            "current": {
               "text": "all",
               "value": "$__all"
            },
            "datasource": "Prometheus",
            "hide": 0,
            "includeAll": true,
            "label": null,
            "multi": true,
            "name": "service",
            "options": [ ],
            "query": "label_values(service)",
            "refresh": 1,
            "regex": "",
            "sort": 0,
            "tagValuesQuery": "",
            "tags": [ ],
            "tagsQuery": "",
            "type": "query",
            "useTags": false
         }
      ]
   },
   "time": {
      "from": "now-6h",
      "to": "now"
   },
   "timepicker": {
      "refresh_intervals": [
         "5s",
         "10s",
         "30s",
         "1m",
         "5m",
         "15m",
         "30m",
         "1h",
         "2h",
         "1d"
      ],
      "time_options": [
         "5m",
         "15m",
         "1h",
         "6h",
         "12h",
         "24h",
         "2d",
         "7d",
         "30d"
      ]
   },
   "timezone": "browser",
   "title": "Demo Title",
   "version": 0
}
