{
  "annotations": {
    "list": [
      {
        "builtIn": 1,
        "datasource": {
          "type": "grafana",
          "uid": "-- Grafana --"
        },
        "enable": true,
        "hide": true,
        "iconColor": "rgba(0, 211, 255, 1)",
        "name": "Annotations & Alerts",
        "target": {
          "limit": 100,
          "matchAny": false,
          "tags": [],
          "type": "dashboard"
        },
        "type": "dashboard"
      }
    ]
  },
  "editable": true,
  "fiscalYearStartMonth": 0,
  "graphTooltip": 0,
  "id": 8,
  "links": [],
  "liveNow": false,
  "panels": [
    {
      "datasource": {
        "type": "mysql",
        "uid": "Q1XRcSF4k"
      },
      "fieldConfig": {
        "defaults": {
          "color": {
            "mode": "thresholds"
          },
          "decimals": 2,
          "mappings": [
            {
              "options": {
                "from": 0,
                "result": {
                  "color": "red",
                  "index": 0
                },
                "to": 0.95
              },
              "type": "range"
            },
            {
              "options": {
                "from": 0.95,
                "result": {
                  "color": "yellow",
                  "index": 1
                },
                "to": 0.99
              },
              "type": "range"
            },
            {
              "options": {
                "from": 0.99,
                "result": {
                  "color": "green",
                  "index": 2
                },
                "to": 1
              },
              "type": "range"
            }
          ],
          "thresholds": {
            "mode": "absolute",
            "steps": [
              {
                "color": "green",
                "value": null
              }
            ]
          },
          "unit": "percentunit"
        },
        "overrides": []
      },
      "gridPos": {
        "h": 8,
        "w": 9,
        "x": 0,
        "y": 0
      },
      "id": 45,
      "options": {
        "colorMode": "value",
        "graphMode": "area",
        "justifyMode": "auto",
        "orientation": "auto",
        "reduceOptions": {
          "calcs": [
            "lastNotNull"
          ],
          "fields": "/^SLA$/",
          "values": false
        },
        "textMode": "auto"
      },
      "pluginVersion": "9.3.0",
      "targets": [
        {
          "dataset": "sla",
          "datasource": {
            "type": "mysql",
            "uid": "Q1XRcSF4k"
          },
          "editorMode": "code",
          "format": "table",
          "rawQuery": true,
          "rawSql": "SELECT s1.datetime AS datetime,\nNOT (d1.is_bad OR s1.is_bad) AS user_status FROM indicators as s1 \nJOIN indicators AS d1 \nON s1.datetime=d1.datetime AND s1.name=\"prober_create_user_scenario_success\" AND d1.name=\"prober_create_user_scenario_duration_milliseconds\"\nWHERE $__timeFilter(s1.datetime)",
          "refId": "user creation",
          "sql": {
            "columns": [
              {
                "parameters": [],
                "type": "function"
              }
            ],
            "groupBy": [
              {
                "property": {
                  "type": "string"
                },
                "type": "groupBy"
              }
            ],
            "limit": 50
          },
          "table": "indicators"
        },
        {
          "dataset": "sla",
          "datasource": {
            "type": "mysql",
            "uid": "Q1XRcSF4k"
          },
          "editorMode": "code",
          "format": "table",
          "hide": false,
          "rawQuery": true,
          "rawSql": "SELECT s1.datetime AS datetime,\nNOT (d1.is_bad OR s1.is_bad) AS team_status FROM indicators as s1 \nJOIN indicators AS d1 \nON s1.datetime=d1.datetime AND s1.name=\"prober_create_team_scenario_success\" AND d1.name=\"prober_create_team_scenario_duration_milliseconds\"\nWHERE $__timeFilter(s1.datetime)",
          "refId": "team creation",
          "sql": {
            "columns": [
              {
                "parameters": [],
                "type": "function"
              }
            ],
            "groupBy": [
              {
                "property": {
                  "type": "string"
                },
                "type": "groupBy"
              }
            ],
            "limit": 50
          },
          "table": "indicators"
        },
        {
          "dataset": "sla",
          "datasource": {
            "type": "mysql",
            "uid": "Q1XRcSF4k"
          },
          "editorMode": "code",
          "format": "table",
          "hide": false,
          "rawQuery": true,
          "rawSql": "SELECT s1.datetime AS datetime,\nNOT (d1.is_bad OR s1.is_bad) AS event_status FROM indicators as s1 \nJOIN indicators AS d1 \nON s1.datetime=d1.datetime AND s1.name=\"prober_create_event_scenario_success\" AND d1.name=\"prober_create_event_scenario_duration_milliseconds\"\nWHERE $__timeFilter(s1.datetime)",
          "refId": "event creation",
          "sql": {
            "columns": [
              {
                "parameters": [],
                "type": "function"
              }
            ],
            "groupBy": [
              {
                "property": {
                  "type": "string"
                },
                "type": "groupBy"
              }
            ],
            "limit": 50
          },
          "table": "indicators"
        },
        {
          "dataset": "sla",
          "datasource": {
            "type": "mysql",
            "uid": "Q1XRcSF4k"
          },
          "editorMode": "code",
          "format": "table",
          "hide": false,
          "rawQuery": true,
          "rawSql": "SELECT s1.datetime AS datetime,\nNOT (d1.is_bad OR s1.is_bad) AS frontpage_status FROM indicators as s1 \nJOIN indicators AS d1 \nON s1.datetime=d1.datetime AND s1.name=\"prober_load_frontpage_scenario_success\" AND d1.name=\"prober_load_frontpage_scenario_duration_milliseconds\"\nWHERE $__timeFilter(s1.datetime)",
          "refId": "frontpage",
          "sql": {
            "columns": [
              {
                "parameters": [],
                "type": "function"
              }
            ],
            "groupBy": [
              {
                "property": {
                  "type": "string"
                },
                "type": "groupBy"
              }
            ],
            "limit": 50
          },
          "table": "indicators"
        },
        {
          "datasource": {
            "name": "Expression",
            "type": "__expr__",
            "uid": "__expr__"
          },
          "expression": "${user creation} * ${team creation} * ${event creation} * ${frontpage}",
          "hide": false,
          "refId": "product",
          "type": "math"
        },
        {
          "datasource": {
            "name": "Expression",
            "type": "__expr__",
            "uid": "__expr__"
          },
          "expression": "product",
          "hide": false,
          "reducer": "mean",
          "refId": "SLA",
          "type": "reduce"
        }
      ],
      "title": "SLA",
      "transformations": [],
      "type": "stat"
    },
    {
      "datasource": {
        "type": "prometheus",
        "uid": "eplMqQN4k"
      },
      "gridPos": {
        "h": 8,
        "w": 8,
        "x": 9,
        "y": 0
      },
      "id": 57,
      "options": {
        "code": {
          "language": "plaintext",
          "showLineNumbers": false,
          "showMiniMap": false
        },
        "content": "Сервис доступен как минимум 95% времени, максимальное допустимое время:\n\n* 2 c на загрузку главной страницы\n* 100 мс на создание пользователя\n* 200 мс на создание команды\n* 100 мс на создание события",
        "mode": "markdown"
      },
      "pluginVersion": "9.3.0",
      "title": "SLA",
      "type": "text"
    },
    {
      "collapsed": false,
      "gridPos": {
        "h": 1,
        "w": 24,
        "x": 0,
        "y": 8
      },
      "id": 2,
      "panels": [],
      "repeat": "scenarios",
      "repeatDirection": "h",
      "title": "status for $scenarios",
      "type": "row"
    },
    {
      "datasource": {
        "type": "mysql",
        "uid": "Q1XRcSF4k"
      },
      "fieldConfig": {
        "defaults": {
          "color": {
            "mode": "thresholds"
          },
          "decimals": 2,
          "mappings": [],
          "thresholds": {
            "mode": "absolute",
            "steps": [
              {
                "color": "green",
                "value": null
              }
            ]
          },
          "unit": "percentunit"
        },
        "overrides": []
      },
      "gridPos": {
        "h": 7,
        "w": 5,
        "x": 0,
        "y": 9
      },
      "id": 4,
      "options": {
        "colorMode": "value",
        "graphMode": "area",
        "justifyMode": "auto",
        "orientation": "auto",
        "reduceOptions": {
          "calcs": [
            "lastNotNull"
          ],
          "fields": "/^indicator$/",
          "values": false
        },
        "textMode": "auto"
      },
      "pluginVersion": "9.3.0",
      "targets": [
        {
          "dataset": "sla",
          "datasource": {
            "type": "mysql",
            "uid": "Q1XRcSF4k"
          },
          "editorMode": "code",
          "format": "table",
          "rawQuery": true,
          "rawSql": "SELECT \nCOUNT(*) as total\nFROM indicators \nwhere \nname = CONCAT(${scenarios}, '_duration_milliseconds') and $__timeFilter(datetime)",
          "refId": "total",
          "sql": {
            "columns": [
              {
                "parameters": [],
                "type": "function"
              }
            ],
            "groupBy": [
              {
                "property": {
                  "type": "string"
                },
                "type": "groupBy"
              }
            ],
            "limit": 50
          },
          "table": "indicators"
        },
        {
          "dataset": "sla",
          "datasource": {
            "type": "mysql",
            "uid": "Q1XRcSF4k"
          },
          "editorMode": "code",
          "format": "table",
          "rawQuery": true,
          "rawSql": "SELECT \nCOUNT(*) as bad\nFROM indicators \nwhere \nname = CONCAT(${scenarios}, '_duration_milliseconds') and $__timeFilter(datetime) and is_bad = 1",
          "refId": "bad",
          "sql": {
            "columns": [
              {
                "parameters": [],
                "type": "function"
              }
            ],
            "groupBy": [
              {
                "property": {
                  "type": "string"
                },
                "type": "groupBy"
              }
            ],
            "limit": 50
          },
          "table": "indicators"
        },
        {
          "datasource": {
            "name": "Expression",
            "type": "__expr__",
            "uid": "__expr__"
          },
          "expression": "1 - ($bad / $total)",
          "hide": false,
          "refId": "indicator",
          "type": "math"
        }
      ],
      "title": "SLO: $scenarios duration",
      "transformations": [
        {
          "id": "calculateField",
          "options": {
            "mode": "binary",
            "reduce": {
              "reducer": "sum"
            }
          }
        }
      ],
      "type": "stat"
    },
    {
      "datasource": {
        "type": "mysql",
        "uid": "Q1XRcSF4k"
      },
      "fieldConfig": {
        "defaults": {
          "color": {
            "mode": "palette-classic"
          },
          "custom": {
            "axisCenteredZero": false,
            "axisColorMode": "text",
            "axisLabel": "",
            "axisPlacement": "auto",
            "barAlignment": 0,
            "drawStyle": "line",
            "fillOpacity": 0,
            "gradientMode": "none",
            "hideFrom": {
              "legend": false,
              "tooltip": false,
              "viz": false
            },
            "lineInterpolation": "linear",
            "lineStyle": {
              "fill": "solid"
            },
            "lineWidth": 1,
            "pointSize": 5,
            "scaleDistribution": {
              "type": "linear"
            },
            "showPoints": "never",
            "spanNulls": false,
            "stacking": {
              "group": "A",
              "mode": "none"
            },
            "thresholdsStyle": {
              "mode": "off"
            }
          },
          "mappings": [],
          "thresholds": {
            "mode": "absolute",
            "steps": [
              {
                "color": "green",
                "value": null
              }
            ]
          },
          "unit": "ms"
        },
        "overrides": [
          {
            "matcher": {
              "id": "byName",
              "options": "Value"
            },
            "properties": [
              {
                "id": "custom.lineWidth",
                "value": 3
              },
              {
                "id": "color",
                "value": {
                  "fixedColor": "yellow",
                  "mode": "fixed"
                }
              }
            ]
          },
          {
            "matcher": {
              "id": "byName",
              "options": "SLO"
            },
            "properties": [
              {
                "id": "custom.lineWidth",
                "value": 1
              },
              {
                "id": "color",
                "value": {
                  "fixedColor": "red",
                  "mode": "fixed"
                }
              },
              {
                "id": "custom.lineStyle",
                "value": {
                  "dash": [
                    10,
                    10
                  ],
                  "fill": "dash"
                }
              }
            ]
          },
          {
            "matcher": {
              "id": "byName",
              "options": "ERROR"
            },
            "properties": [
              {
                "id": "custom.drawStyle",
                "value": "line"
              },
              {
                "id": "color",
                "value": {
                  "fixedColor": "semi-dark-red",
                  "mode": "fixed"
                }
              },
              {
                "id": "custom.stacking",
                "value": {
                  "group": "error",
                  "mode": "percent"
                }
              },
              {
                "id": "custom.gradientMode",
                "value": "hue"
              },
              {
                "id": "custom.axisSoftMax",
                "value": 100
              },
              {
                "id": "custom.lineWidth",
                "value": 0
              },
              {
                "id": "custom.fillOpacity",
                "value": 20
              },
              {
                "id": "custom.axisPlacement",
                "value": "hidden"
              }
            ]
          }
        ]
      },
      "gridPos": {
        "h": 7,
        "w": 8,
        "x": 5,
        "y": 9
      },
      "id": 16,
      "options": {
        "legend": {
          "calcs": [],
          "displayMode": "list",
          "placement": "bottom",
          "showLegend": true
        },
        "tooltip": {
          "mode": "single",
          "sort": "none"
        }
      },
      "targets": [
        {
          "datasource": {
            "type": "mysql",
            "uid": "Q1XRcSF4k"
          },
          "editorMode": "code",
          "format": "table",
          "rawQuery": true,
          "rawSql": "SELECT\n  UNIX_TIMESTAMP(datetime) as time,\n  value as 'Value'\nFROM indicators\nWHERE $__timeFilter(datetime) and name=CONCAT(${scenarios}, '_duration_milliseconds')\nORDER BY datetime ASC",
          "refId": "value",
          "sql": {
            "columns": [
              {
                "parameters": [],
                "type": "function"
              }
            ],
            "groupBy": [
              {
                "property": {
                  "type": "string"
                },
                "type": "groupBy"
              }
            ],
            "limit": 50
          }
        },
        {
          "datasource": {
            "type": "mysql",
            "uid": "Q1XRcSF4k"
          },
          "editorMode": "code",
          "format": "table",
          "hide": false,
          "rawQuery": true,
          "rawSql": "SELECT\n  UNIX_TIMESTAMP(datetime) as time,\n  slo as 'SLO'\nFROM indicators\nWHERE $__timeFilter(datetime) and name=CONCAT(${scenarios}, '_duration_milliseconds')\nORDER BY datetime ASC",
          "refId": "SLO",
          "sql": {
            "columns": [
              {
                "parameters": [],
                "type": "function"
              }
            ],
            "groupBy": [
              {
                "property": {
                  "type": "string"
                },
                "type": "groupBy"
              }
            ],
            "limit": 50
          }
        },
        {
          "datasource": {
            "type": "mysql",
            "uid": "Q1XRcSF4k"
          },
          "editorMode": "code",
          "format": "table",
          "hide": false,
          "rawQuery": true,
          "rawSql": "SELECT\n  UNIX_TIMESTAMP(datetime) as time,\n  1 as 'ERROR'\nFROM indicators\nWHERE $__timeFilter(datetime) and name=CONCAT(${scenarios}, '_duration_milliseconds') and  is_bad=1\nORDER BY datetime ASC",
          "refId": "error",
          "sql": {
            "columns": [
              {
                "parameters": [],
                "type": "function"
              }
            ],
            "groupBy": [
              {
                "property": {
                  "type": "string"
                },
                "type": "groupBy"
              }
            ],
            "limit": 50
          }
        }
      ],
      "title": "SLI: $scenarios duration",
      "type": "timeseries"
    },
    {
      "datasource": {
        "type": "mysql",
        "uid": "Q1XRcSF4k"
      },
      "description": "probe success measured by number of 2xx status codes",
      "fieldConfig": {
        "defaults": {
          "color": {
            "mode": "thresholds"
          },
          "decimals": 2,
          "mappings": [],
          "thresholds": {
            "mode": "absolute",
            "steps": [
              {
                "color": "green",
                "value": null
              }
            ]
          },
          "unit": "percentunit"
        },
        "overrides": []
      },
      "gridPos": {
        "h": 7,
        "w": 5,
        "x": 13,
        "y": 9
      },
      "id": 23,
      "options": {
        "colorMode": "value",
        "graphMode": "area",
        "justifyMode": "auto",
        "orientation": "auto",
        "reduceOptions": {
          "calcs": [
            "lastNotNull"
          ],
          "fields": "/^indicator$/",
          "values": false
        },
        "textMode": "auto"
      },
      "pluginVersion": "9.3.0",
      "targets": [
        {
          "dataset": "sla",
          "datasource": {
            "type": "mysql",
            "uid": "Q1XRcSF4k"
          },
          "editorMode": "code",
          "format": "table",
          "rawQuery": true,
          "rawSql": "SELECT \nCOUNT(*) as total\nFROM indicators \nWHERE \nname = CONCAT(${scenarios}, '_success') AND $__timeFilter(datetime)",
          "refId": "total",
          "sql": {
            "columns": [
              {
                "parameters": [],
                "type": "function"
              }
            ],
            "groupBy": [
              {
                "property": {
                  "type": "string"
                },
                "type": "groupBy"
              }
            ],
            "limit": 50
          },
          "table": "indicators"
        },
        {
          "dataset": "sla",
          "datasource": {
            "type": "mysql",
            "uid": "Q1XRcSF4k"
          },
          "editorMode": "code",
          "format": "table",
          "hide": false,
          "rawQuery": true,
          "rawSql": "SELECT \nCOUNT(*) as bad\nFROM indicators \nWHERE \nname = CONCAT(${scenarios}, '_success') AND $__timeFilter(datetime) AND is_bad = 1",
          "refId": "bad",
          "sql": {
            "columns": [
              {
                "parameters": [],
                "type": "function"
              }
            ],
            "groupBy": [
              {
                "property": {
                  "type": "string"
                },
                "type": "groupBy"
              }
            ],
            "limit": 50
          },
          "table": "indicators"
        },
        {
          "datasource": {
            "name": "Expression",
            "type": "__expr__",
            "uid": "__expr__"
          },
          "expression": "1 - $bad / $total",
          "hide": false,
          "refId": "indicator",
          "type": "math"
        }
      ],
      "title": "SLO: $scenarios http ok",
      "type": "stat"
    },
    {
      "datasource": {
        "type": "mysql",
        "uid": "Q1XRcSF4k"
      },
      "fieldConfig": {
        "defaults": {
          "color": {
            "mode": "thresholds"
          },
          "custom": {
            "fillOpacity": 80,
            "lineWidth": 0,
            "spanNulls": false
          },
          "mappings": [
            {
              "options": {
                "false": {
                  "color": "red",
                  "index": 0,
                  "text": "fail"
                },
                "true": {
                  "color": "green",
                  "index": 1,
                  "text": "success"
                }
              },
              "type": "value"
            }
          ],
          "thresholds": {
            "mode": "absolute",
            "steps": [
              {
                "color": "dark-red",
                "value": null
              }
            ]
          },
          "unit": "none"
        },
        "overrides": []
      },
      "gridPos": {
        "h": 7,
        "w": 6,
        "x": 18,
        "y": 9
      },
      "id": 33,
      "options": {
        "alignValue": "left",
        "legend": {
          "displayMode": "list",
          "placement": "bottom",
          "showLegend": true
        },
        "mergeValues": true,
        "rowHeight": 0.85,
        "showValue": "never",
        "tooltip": {
          "mode": "single",
          "sort": "none"
        }
      },
      "targets": [
        {
          "datasource": {
            "type": "mysql",
            "uid": "Q1XRcSF4k"
          },
          "editorMode": "code",
          "format": "table",
          "rawQuery": true,
          "rawSql": "SELECT\n  UNIX_TIMESTAMP(datetime) as time,\n  1-is_bad as 'Value'\nFROM indicators\nWHERE $__timeFilter(datetime) and name=CONCAT(${scenarios}, '_success')\nORDER BY datetime ASC",
          "refId": "A",
          "sql": {
            "columns": [
              {
                "parameters": [],
                "type": "function"
              }
            ],
            "groupBy": [
              {
                "property": {
                  "type": "string"
                },
                "type": "groupBy"
              }
            ],
            "limit": 50
          }
        }
      ],
      "title": "SLI: $scenarios http ok",
      "transformations": [
        {
          "id": "convertFieldType",
          "options": {
            "conversions": [
              {
                "destinationType": "boolean",
                "targetField": "Value"
              }
            ],
            "fields": {}
          }
        }
      ],
      "type": "state-timeline"
    }
  ],
  "refresh": "5s",
  "schemaVersion": 37,
  "style": "dark",
  "tags": [],
  "templating": {
    "list": [
      {
        "current": {
          "selected": true,
          "text": [
            "All"
          ],
          "value": [
            "$__all"
          ]
        },
        "datasource": {
          "type": "mysql",
          "uid": "Q1XRcSF4k"
        },
        "definition": "SELECT\n  name\nFROM indicators\nWHERE $__timeFilter(datetime) AND name like \"%_duration%\"\nORDER BY name ASC",
        "hide": 0,
        "includeAll": true,
        "multi": true,
        "name": "scenarios",
        "options": [],
        "query": "SELECT\n  name\nFROM indicators\nWHERE $__timeFilter(datetime) AND name like \"%_duration%\"\nORDER BY name ASC",
        "refresh": 1,
        "regex": "/(.*)(?=_duration)/",
        "skipUrlSync": false,
        "sort": 0,
        "type": "query"
      }
    ]
  },
  "time": {
    "from": "now-3h",
    "to": "now"
  },
  "timepicker": {},
  "timezone": "",
  "title": "SLA",
  "uid": "jebMyIF4k",
  "version": 36,
  "weekStart": ""
}