{
  "annotations": {
    "list": [
      {
        "builtIn": 1,
        "datasource": {
          "type": "grafana",
          "uid": "-- Grafana --"
        },
        "enable": true,
        "hide": true,
        "iconColor": "rgba(0, 211, 255, 1)",
        "name": "Annotations & Alerts",
        "target": {
          "limit": 100,
          "matchAny": false,
          "tags": [],
          "type": "dashboard"
        },
        "type": "dashboard"
      }
    ]
  },
  "editable": true,
  "fiscalYearStartMonth": 0,
  "graphTooltip": 0,
  "id": 3,
  "links": [],
  "liveNow": false,
  "panels": [
    {
      "datasource": {
        "type": "prometheus",
        "uid": "PBFA97CFB590B2093"
      },
      "gridPos": {
        "h": 8,
        "w": 6,
        "x": 0,
        "y": 0
      },
      "id": 2,
      "options": {
        "code": {
          "language": "plaintext",
          "showLineNumbers": false,
          "showMiniMap": false
        },
        "content": "### Availability Dashboard - Service: Oncall\n#### Сервис для изменения и просмотра расписания дежурств\n#### Dashboards:\n* [Reliability dashboard](http://graf.com/d/1Op6VDBVz)\n* [Availability dashboard](http://graf.com/d/u9292ff4z)\n#### Links: \n* [Git Repo](https://gitlab.com/i_plyuhin/oncall-gitlab)\n* [SLO Document](https://gitlab.com/i_plyuhin/oncall-gitlab/-/blob/master/SLO_document.md)\n\n",
        "mode": "markdown"
      },
      "pluginVersion": "9.2.3",
      "title": "Panel Title",
      "type": "text"
    },
    {
      "datasource": {
        "type": "mysql",
        "uid": "P211906C1C32DB77E"
      },
      "description": "SLI SPEC",
      "fieldConfig": {
        "defaults": {
          "color": {
            "mode": "thresholds"
          },
          "decimals": 2,
          "mappings": [],
          "thresholds": {
            "mode": "absolute",
            "steps": [
              {
                "color": "red",
                "value": null
              },
              {
                "color": "#EAB839",
                "value": 0.9
              },
              {
                "color": "green",
                "value": 0.95
              }
            ]
          },
          "unit": "percentunit"
        },
        "overrides": []
      },
      "gridPos": {
        "h": 8,
        "w": 5,
        "x": 6,
        "y": 0
      },
      "id": 9,
      "options": {
        "colorMode": "value",
        "graphMode": "area",
        "justifyMode": "auto",
        "orientation": "auto",
        "reduceOptions": {
          "calcs": [
            "lastNotNull"
          ],
          "fields": "",
          "values": false
        },
        "textMode": "auto"
      },
      "pluginVersion": "9.2.3",
      "targets": [
        {
          "datasource": {
            "type": "mysql",
            "uid": "P211906C1C32DB77E"
          },
          "editorMode": "code",
          "format": "table",
          "rawQuery": true,
          "rawSql": "SELECT ($time_window - COUNT(DISTINCT datetime)) / $time_window FROM $mysql_table\nWHERE datetime $__timeFilter()\nand is_bad\n\n",
          "refId": "A",
          "sql": {
            "columns": [
              {
                "parameters": [],
                "type": "function"
              }
            ],
            "groupBy": [
              {
                "property": {
                  "type": "string"
                },
                "type": "groupBy"
              }
            ],
            "limit": 50
          }
        }
      ],
      "title": "Oncall availability",
      "type": "stat"
    },
    {
      "datasource": {
        "type": "mysql",
        "uid": "P211906C1C32DB77E"
      },
      "fieldConfig": {
        "defaults": {
          "color": {
            "mode": "thresholds"
          },
          "decimals": 2,
          "mappings": [],
          "thresholds": {
            "mode": "absolute",
            "steps": [
              {
                "color": "green",
                "value": null
              },
              {
                "color": "red",
                "value": 80
              }
            ]
          },
          "unit": "percentunit"
        },
        "overrides": []
      },
      "gridPos": {
        "h": 8,
        "w": 13,
        "x": 11,
        "y": 0
      },
      "id": 11,
      "options": {
        "colorMode": "value",
        "graphMode": "area",
        "justifyMode": "auto",
        "orientation": "auto",
        "reduceOptions": {
          "calcs": [
            "lastNotNull"
          ],
          "fields": "",
          "values": false
        },
        "textMode": "auto"
      },
      "pluginVersion": "9.2.3",
      "targets": [
        {
          "datasource": {
            "type": "mysql",
            "uid": "P211906C1C32DB77E"
          },
          "editorMode": "code",
          "format": "table",
          "rawQuery": true,
          "rawSql": "SELECT (60 - COUNT(DISTINCT datetime)) / 60 as 1h FROM $mysql_table\nWHERE datetime BETWEEN DATE_SUB(NOW(), INTERVAL 1 HOUR) and NOW()\nand is_bad\n",
          "refId": "1h",
          "sql": {
            "columns": [
              {
                "parameters": [],
                "type": "function"
              }
            ],
            "groupBy": [
              {
                "property": {
                  "type": "string"
                },
                "type": "groupBy"
              }
            ],
            "limit": 50
          }
        },
        {
          "datasource": {
            "type": "mysql",
            "uid": "P211906C1C32DB77E"
          },
          "editorMode": "code",
          "format": "table",
          "hide": false,
          "rawQuery": true,
          "rawSql": "SELECT (60 * 6 - COUNT(DISTINCT datetime)) / (60 * 6) as 6h FROM $mysql_table\nWHERE datetime BETWEEN DATE_SUB(NOW(), INTERVAL 6 HOUR) and NOW()\nand is_bad\n",
          "refId": "6h",
          "sql": {
            "columns": [
              {
                "parameters": [],
                "type": "function"
              }
            ],
            "groupBy": [
              {
                "property": {
                  "type": "string"
                },
                "type": "groupBy"
              }
            ],
            "limit": 50
          }
        },
        {
          "datasource": {
            "type": "mysql",
            "uid": "P211906C1C32DB77E"
          },
          "editorMode": "code",
          "format": "table",
          "hide": false,
          "rawQuery": true,
          "rawSql": "SELECT (60 * 24 - COUNT(DISTINCT datetime)) / (60 * 24) as 1d FROM $mysql_table\nWHERE datetime BETWEEN DATE_SUB(NOW(), INTERVAL 24 HOUR) and NOW()\nand is_bad\n",
          "refId": "1d",
          "sql": {
            "columns": [
              {
                "parameters": [],
                "type": "function"
              }
            ],
            "groupBy": [
              {
                "property": {
                  "type": "string"
                },
                "type": "groupBy"
              }
            ],
            "limit": 50
          }
        },
        {
          "datasource": {
            "type": "mysql",
            "uid": "P211906C1C32DB77E"
          },
          "editorMode": "code",
          "format": "table",
          "hide": false,
          "rawQuery": true,
          "rawSql": "SELECT (60 * 24 * 7 - COUNT(DISTINCT datetime)) / (60 * 24 * 7) as 7d FROM $mysql_table\nWHERE datetime BETWEEN DATE_SUB(NOW(), INTERVAL 24 * 7 HOUR) and NOW()\nand is_bad\n",
          "refId": "7d",
          "sql": {
            "columns": [
              {
                "parameters": [],
                "type": "function"
              }
            ],
            "groupBy": [
              {
                "property": {
                  "type": "string"
                },
                "type": "groupBy"
              }
            ],
            "limit": 50
          }
        },
        {
          "datasource": {
            "type": "mysql",
            "uid": "P211906C1C32DB77E"
          },
          "editorMode": "code",
          "format": "table",
          "hide": false,
          "rawQuery": true,
          "rawSql": "SELECT (60 * 24 * 28 - COUNT(DISTINCT datetime)) / (60 * 24 * 28) as 28d FROM $mysql_table\nWHERE datetime BETWEEN DATE_SUB(NOW(), INTERVAL 24 * 28 HOUR) and NOW()\nand is_bad\n",
          "refId": "28d",
          "sql": {
            "columns": [
              {
                "parameters": [],
                "type": "function"
              }
            ],
            "groupBy": [
              {
                "property": {
                  "type": "string"
                },
                "type": "groupBy"
              }
            ],
            "limit": 50
          }
        }
      ],
      "title": "Availability",
      "type": "stat"
    },
    {
      "datasource": {
        "type": "mysql",
        "uid": "P211906C1C32DB77E"
      },
      "fieldConfig": {
        "defaults": {
          "color": {
            "mode": "thresholds"
          },
          "custom": {
            "axisCenteredZero": false,
            "axisColorMode": "text",
            "axisLabel": "",
            "axisPlacement": "auto",
            "barAlignment": 0,
            "drawStyle": "line",
            "fillOpacity": 8,
            "gradientMode": "scheme",
            "hideFrom": {
              "legend": false,
              "tooltip": false,
              "viz": false
            },
            "lineInterpolation": "smooth",
            "lineStyle": {
              "fill": "solid"
            },
            "lineWidth": 2,
            "pointSize": 5,
            "scaleDistribution": {
              "type": "linear"
            },
            "showPoints": "never",
            "spanNulls": false,
            "stacking": {
              "group": "A",
              "mode": "none"
            },
            "thresholdsStyle": {
              "mode": "off"
            }
          },
          "mappings": [],
          "thresholds": {
            "mode": "absolute",
            "steps": [
              {
                "color": "yellow",
                "value": null
              },
              {
                "color": "red",
                "value": 0.05
              }
            ]
          },
          "unit": "percentunit"
        },
        "overrides": [
          {
            "matcher": {
              "id": "byName",
              "options": "SLO"
            },
            "properties": [
              {
                "id": "color",
                "value": {
                  "fixedColor": "dark-red",
                  "mode": "fixed"
                }
              },
              {
                "id": "custom.lineStyle",
                "value": {
                  "dash": [
                    10,
                    10
                  ],
                  "fill": "dash"
                }
              },
              {
                "id": "custom.lineWidth",
                "value": 1
              },
              {
                "id": "custom.showPoints",
                "value": "never"
              },
              {
                "id": "custom.fillOpacity",
                "value": 0
              }
            ]
          }
        ]
      },
      "gridPos": {
        "h": 12,
        "w": 11,
        "x": 0,
        "y": 8
      },
      "id": 4,
      "options": {
        "legend": {
          "calcs": [],
          "displayMode": "list",
          "placement": "bottom",
          "showLegend": true
        },
        "tooltip": {
          "mode": "single",
          "sort": "none"
        }
      },
      "targets": [
        {
          "datasource": {
            "type": "mysql",
            "uid": "P211906C1C32DB77E"
          },
          "editorMode": "code",
          "format": "table",
          "hide": false,
          "rawQuery": true,
          "rawSql": "SELECT datetime as time, value as bad_requests FROM $mysql_table\nWHERE name=\"bad_requests\"\nand datetime $__timeFilter()",
          "refId": "A",
          "sql": {
            "columns": [
              {
                "parameters": [],
                "type": "function"
              }
            ],
            "groupBy": [
              {
                "property": {
                  "type": "string"
                },
                "type": "groupBy"
              }
            ],
            "limit": 50
          }
        },
        {
          "datasource": {
            "type": "mysql",
            "uid": "P211906C1C32DB77E"
          },
          "editorMode": "code",
          "format": "table",
          "hide": false,
          "rawQuery": true,
          "rawSql": "SELECT datetime as time, slo as SLO from $mysql_table \nWHERE name=\"bad_requests\"\n    ",
          "refId": "B",
          "sql": {
            "columns": [
              {
                "parameters": [],
                "type": "function"
              }
            ],
            "groupBy": [
              {
                "property": {
                  "type": "string"
                },
                "type": "groupBy"
              }
            ],
            "limit": 50
          }
        }
      ],
      "title": "SLI: Bad requests",
      "type": "timeseries"
    },
    {
      "datasource": {
        "type": "mysql",
        "uid": "P211906C1C32DB77E"
      },
      "fieldConfig": {
        "defaults": {
          "color": {
            "mode": "thresholds"
          },
          "custom": {
            "axisCenteredZero": false,
            "axisColorMode": "text",
            "axisLabel": "",
            "axisPlacement": "auto",
            "barAlignment": 0,
            "drawStyle": "line",
            "fillOpacity": 8,
            "gradientMode": "scheme",
            "hideFrom": {
              "legend": false,
              "tooltip": false,
              "viz": false
            },
            "lineInterpolation": "smooth",
            "lineStyle": {
              "fill": "solid"
            },
            "lineWidth": 2,
            "pointSize": 5,
            "scaleDistribution": {
              "type": "linear"
            },
            "showPoints": "never",
            "spanNulls": false,
            "stacking": {
              "group": "A",
              "mode": "none"
            },
            "thresholdsStyle": {
              "mode": "off"
            }
          },
          "mappings": [],
          "thresholds": {
            "mode": "absolute",
            "steps": [
              {
                "color": "yellow",
                "value": null
              },
              {
                "color": "red",
                "value": 0.1
              }
            ]
          },
          "unit": "percentunit"
        },
        "overrides": [
          {
            "matcher": {
              "id": "byName",
              "options": "SLO"
            },
            "properties": [
              {
                "id": "color",
                "value": {
                  "fixedColor": "dark-red",
                  "mode": "fixed"
                }
              },
              {
                "id": "custom.lineStyle",
                "value": {
                  "dash": [
                    10,
                    10
                  ],
                  "fill": "dash"
                }
              },
              {
                "id": "custom.lineWidth",
                "value": 1
              },
              {
                "id": "custom.showPoints",
                "value": "never"
              },
              {
                "id": "custom.fillOpacity",
                "value": 0
              }
            ]
          }
        ]
      },
      "gridPos": {
        "h": 12,
        "w": 13,
        "x": 11,
        "y": 8
      },
      "id": 5,
      "options": {
        "legend": {
          "calcs": [],
          "displayMode": "list",
          "placement": "bottom",
          "showLegend": true
        },
        "tooltip": {
          "mode": "single",
          "sort": "none"
        }
      },
      "targets": [
        {
          "datasource": {
            "type": "mysql",
            "uid": "P211906C1C32DB77E"
          },
          "editorMode": "code",
          "format": "table",
          "hide": false,
          "rawQuery": true,
          "rawSql": "SELECT datetime as time, value as slow_requests FROM $mysql_table\nWHERE name=\"slow_requests\"\nand datetime $__timeFilter()",
          "refId": "A",
          "sql": {
            "columns": [
              {
                "parameters": [],
                "type": "function"
              }
            ],
            "groupBy": [
              {
                "property": {
                  "type": "string"
                },
                "type": "groupBy"
              }
            ],
            "limit": 50
          }
        },
        {
          "datasource": {
            "type": "mysql",
            "uid": "P211906C1C32DB77E"
          },
          "editorMode": "code",
          "format": "table",
          "hide": false,
          "rawQuery": true,
          "rawSql": "SELECT datetime as time, slo as SLO from $mysql_table \nWHERE name=\"slow_requests\"\n    ",
          "refId": "B",
          "sql": {
            "columns": [
              {
                "parameters": [],
                "type": "function"
              }
            ],
            "groupBy": [
              {
                "property": {
                  "type": "string"
                },
                "type": "groupBy"
              }
            ],
            "limit": 50
          }
        }
      ],
      "title": "SLI: Slow requests",
      "type": "timeseries"
    }
  ],
  "refresh": "1m",
  "schemaVersion": 37,
  "style": "dark",
  "tags": [],
  "templating": {
    "list": [
      {
        "current": {
          "selected": true,
          "text": "availability",
          "value": "availability"
        },
        "hide": 0,
        "includeAll": false,
        "multi": false,
        "name": "mysql_table",
        "options": [
          {
            "selected": true,
            "text": "availability",
            "value": "availability"
          }
        ],
        "query": "availability",
        "queryValue": "",
        "skipUrlSync": false,
        "type": "custom"
      },
      {
        "current": {
          "selected": true,
          "text": "1h",
          "value": "60"
        },
        "hide": 0,
        "includeAll": false,
        "multi": false,
        "name": "time_window",
        "options": [
          {
            "selected": true,
            "text": "1h",
            "value": "60"
          },
          {
            "selected": false,
            "text": "6h",
            "value": "360"
          },
          {
            "selected": false,
            "text": "1d",
            "value": "1440"
          },
          {
            "selected": false,
            "text": "7d",
            "value": "10080"
          },
          {
            "selected": false,
            "text": "28d",
            "value": "40320"
          }
        ],
        "query": "1h : 60, 6h : 360, 1d : 1440, 7d : 10080, 28d : 40320",
        "queryValue": "",
        "skipUrlSync": false,
        "type": "custom"
      }
    ]
  },
  "time": {
    "from": "now-1h",
    "to": "now"
  },
  "timepicker": {},
  "timezone": "",
  "title": "Availability Oncall",
  "uid": "u9292ff4z",
  "version": 1,
  "weekStart": ""
}